…
```
## # A tibble: 5 x 7
##   term                  estimate std.error statistic  p.value conf.low conf.high
##   <chr>                    <dbl>     <dbl>     <dbl>    <dbl>    <dbl>     <dbl>
## 1 (Intercept)             6.02       0.318    18.9   1.39e-67    5.39      6.64 
## 2 Physical_activity_le~   0.0613     0.331     0.185 8.53e- 1   -0.589     0.711
## 3 Physical_activity_le~  -0.295      0.321    -0.920 3.58e- 1   -0.926     0.335
## 4 Physical_activity_le~  -0.388      0.322    -1.20  2.29e- 1   -1.02      0.244
## 5 Physical_activity_le~  -0.255      0.328    -0.777 4.37e- 1   -0.899     0.389
```

```
## # A tibble: 30 x 7
##    term                 estimate std.error statistic  p.value conf.low conf.high
##    <chr>                   <dbl>     <dbl>     <dbl>    <dbl>    <dbl>     <dbl>
##  1 (Intercept)            5.33     0.418     12.8    2.61e-34  4.51       6.15  
##  2 Physical_activity_l~   0.0119   0.324      0.0367 9.71e- 1 -0.624      0.648 
##  3 Physical_activity_l~  -0.251    0.317     -0.792  4.28e- 1 -0.874      0.371 
##  4 Physical_activity_l~  -0.241    0.317     -0.759  4.48e- 1 -0.863      0.382 
##  5 Physical_activity_l~  -0.0758   0.322     -0.236  8.14e- 1 -0.707      0.555 
##  6 Age                    0.0110   0.00196    5.61   2.64e- 8  0.00715    0.0148
##  7 Comorbidities1         0.379    0.0615     6.16   1.12e- 9  0.258      0.499 
##  8 Education2            -0.135    0.191     -0.706  4.80e- 1 -0.510      0.240 
##  9 Education3            -0.257    0.183     -1.40   1.60e- 1 -0.615      0.102 
## 10 Education4            -0.243    0.180     -1.34   1.79e- 1 -0.597      0.111 
## # i 20 more rows
```
…
В полной модели с ковариатами пол **не является** модификатором эффекта физической активности в отношении гликированного гемоглобина.
    

```
## # A tibble: 34 x 7
##    term                 estimate std.error statistic  p.value conf.low conf.high
##    <chr>                   <dbl>     <dbl>     <dbl>    <dbl>    <dbl>     <dbl>
##  1 (Intercept)           5.09      0.367     13.9    8.81e-40  4.37       5.81  
##  2 Physical_activity_l~  0.284     0.270      1.05   2.93e- 1 -0.245      0.813 
##  3 Physical_activity_l~ -0.00910   0.248     -0.0367 9.71e- 1 -0.496      0.477 
##  4 Physical_activity_l~ -0.0101    0.245     -0.0414 9.67e- 1 -0.490      0.470 
##  5 Physical_activity_l~  0.141     0.243      0.581  5.61e- 1 -0.336      0.619 
##  6 SexFemale             0.236     0.483      0.488  6.25e- 1 -0.712      1.18  
##  7 Age                   0.0110    0.00199    5.52   4.44e- 8  0.00709    0.0149
##  8 Comorbidities1        0.374     0.0623     6.01   2.78e- 9  0.252      0.496 
##  9 Education2           -0.132     0.199     -0.666  5.06e- 1 -0.522      0.258 
## 10 Education3           -0.252     0.190     -1.33   1.85e- 1 -0.625      0.121 
## # i 24 more rows
```
…
    
## Задание Бонусное 

Бонусное задание: оцените
    прямой (direct) эффект физической активности на гликирован- ный
    гемоглобин (со всей необходимой диагностикой и коррекциями). Как он
    отличается от общего (total) эффекта? В чем причина/ механизм этих
    различий?
    
    Добавим в модель переменную BMI
    

```
## # A tibble: 30 x 7
##    term                 estimate std.error statistic  p.value conf.low conf.high
##    <chr>                   <dbl>     <dbl>     <dbl>    <dbl>    <dbl>     <dbl>
##  1 (Intercept)            5.33     0.439     12.1    1.67e-31  4.47       6.19  
##  2 Physical_activity_l~   0.0119   0.343      0.0347 9.72e- 1 -0.661      0.685 
##  3 Physical_activity_l~  -0.251    0.336     -0.747  4.55e- 1 -0.912      0.409 
##  4 Physical_activity_l~  -0.241    0.336     -0.716  4.74e- 1 -0.900      0.419 
##  5 Physical_activity_l~  -0.0758   0.340     -0.223  8.24e- 1 -0.744      0.592 
##  6 Age                    0.0110   0.00200    5.49   5.32e- 8  0.00706    0.0149
##  7 Comorbidities1         0.379    0.0629     6.02   2.51e- 9  0.255      0.502 
##  8 Education2            -0.135    0.197     -0.685  4.93e- 1 -0.521      0.251 
##  9 Education3            -0.257    0.188     -1.37   1.73e- 1 -0.626      0.112 
## 10 Education4            -0.243    0.186     -1.31   1.92e- 1 -0.607      0.122 
## # i 20 more rows
```

```
## # A tibble: 31 x 7
##    term                 estimate std.error statistic  p.value conf.low conf.high
##    <chr>                   <dbl>     <dbl>     <dbl>    <dbl>    <dbl>     <dbl>
##  1 (Intercept)           4.49      0.426     10.6    1.37e-24  3.66       5.33  
##  2 Physical_activity_l~ -0.00387   0.337     -0.0115 9.91e- 1 -0.666      0.658 
##  3 Physical_activity_l~ -0.238     0.330     -0.721  4.71e- 1 -0.886      0.410 
##  4 Physical_activity_l~ -0.201     0.329     -0.612  5.41e- 1 -0.847      0.445 
##  5 Physical_activity_l~ -0.0717    0.335     -0.214  8.30e- 1 -0.729      0.585 
##  6 Age                   0.0124    0.00190    6.51   1.29e-10  0.00865    0.0161
##  7 Comorbidities1        0.321     0.0599     5.36   1.05e- 7  0.204      0.439 
##  8 Education2           -0.116     0.193     -0.599  5.49e- 1 -0.495      0.264 
##  9 Education3           -0.262     0.185     -1.42   1.57e- 1 -0.624      0.101 
## 10 Education4           -0.225     0.182     -1.23   2.17e- 1 -0.582      0.133 
## # i 21 more rows
```
…
